# Blender v2.79 (sub 0) OBJ File: ''
# www.blender.org
v 0.349180 0.207194 0.154018
v 0.354302 0.186208 0.156197
v 0.385143 0.186208 -0.000000
v 0.379591 0.207194 -0.000000
v 0.355121 0.214190 0.156546
v 0.367208 0.207194 0.161689
v 0.399133 0.207194 -0.000000
v 0.265794 0.207194 0.278607
v 0.269736 0.186208 0.282548
v 0.279669 0.207194 0.292482
v 0.141206 0.207194 0.361992
v 0.143385 0.186208 0.367114
v 0.143734 0.214190 0.367933
v 0.148875 0.207194 0.380020
v -0.012813 0.207194 0.392404
v -0.012813 0.186208 0.397956
v -0.012813 0.207194 0.411946
v -0.171385 0.207194 0.361992
v -0.179803 0.186208 0.367114
v -0.170708 0.214190 0.367933
v -0.174670 0.207194 0.380020
v -0.295468 0.207194 0.278607
v -0.304955 0.186208 0.282548
v -0.297191 0.214190 0.283179
v -0.305445 0.207194 0.292482
v -0.376323 0.207194 0.154018
v -0.383526 0.186208 0.156197
v -0.381196 0.214190 0.156546
v -0.392890 0.207194 0.161689
v -0.405217 0.207194 -0.000000
v -0.410769 0.186208 -0.000000
v -0.424759 0.207194 -0.000000
v -0.374806 0.207194 -0.154019
v -0.379928 0.186208 -0.156198
v -0.380747 0.214190 -0.156547
v -0.392835 0.207194 -0.161689
v -0.291420 0.207194 -0.278607
v -0.295362 0.186208 -0.282549
v -0.305295 0.207194 -0.292482
v -0.166831 0.207194 -0.361993
v -0.169010 0.186208 -0.367115
v -0.169359 0.214190 -0.367934
v -0.174502 0.207194 -0.380021
v -0.012813 0.207194 -0.392404
v -0.012813 0.186208 -0.397956
v -0.012813 0.207194 -0.411947
v 0.141206 0.207194 -0.361993
v 0.143385 0.186208 -0.367115
v 0.143734 0.214190 -0.367934
v 0.148875 0.207194 -0.380021
v 0.265794 0.207194 -0.278607
v 0.269736 0.186208 -0.282549
v 0.279669 0.207194 -0.292482
v 0.349180 0.207194 -0.154019
v 0.354302 0.186208 -0.156198
v 0.355121 0.214190 -0.156547
v 0.367208 0.207194 -0.161689
v 0.511636 -0.240174 0.223139
v 0.555695 -0.240174 -0.000000
v 0.390827 -0.240174 0.403641
v 0.210327 -0.240174 0.524449
v -0.012813 -0.240174 0.568508
v -0.235953 -0.240174 0.524449
v -0.416455 -0.240174 0.403641
v -0.537262 -0.240174 0.223139
v -0.581321 -0.240174 -0.000000
v -0.537262 -0.240174 -0.223140
v -0.416455 -0.240174 -0.403641
v -0.235953 -0.240174 -0.524449
v -0.012813 -0.240174 -0.568509
v 0.210327 -0.240174 -0.524449
v 0.390827 -0.240174 -0.403641
v 0.511636 -0.240174 -0.223140
v 0.491150 -0.324450 0.214423
v 0.533488 -0.324450 -0.000000
v 0.375061 -0.324451 0.387873
v 0.201610 -0.324451 0.503962
v -0.012813 -0.324451 0.546301
v -0.227237 -0.324451 0.503962
v -0.400687 -0.324451 0.387873
v -0.516776 -0.324450 0.214423
v -0.559115 -0.324450 -0.000000
v -0.516776 -0.324450 -0.214424
v -0.400687 -0.324450 -0.387874
v -0.227237 -0.324450 -0.503963
v -0.012813 -0.324450 -0.546302
v 0.201610 -0.324450 -0.503963
v 0.375061 -0.324450 -0.387874
v 0.491150 -0.324450 -0.214424
v 0.371613 -0.469021 0.163563
v 0.150749 -0.469021 0.384425
v -0.176376 -0.469021 0.384425
v -0.397238 -0.469021 0.163563
v -0.397238 -0.469021 -0.163563
v -0.176376 -0.469021 -0.384426
v 0.150749 -0.469021 -0.384426
v 0.371613 -0.469021 -0.163563
v -0.463178 0.089606 0.047968
v -0.467621 0.079612 -0.000000
v -0.771848 0.058408 0.047968
v -0.759424 0.052630 -0.000000
v -0.793624 0.015656 0.047968
v -0.780299 0.015656 -0.000000
v -0.453408 0.111591 0.063957
v -0.799176 0.071118 0.063957
v -0.822937 0.015656 0.063957
v -0.443636 0.133576 0.047968
v -0.749542 0.118836 0.047968
v -0.826505 0.083828 0.047968
v -0.852251 0.015656 0.047968
v -0.439195 0.143570 -0.000000
v -0.758981 0.127580 -0.000000
v -0.838928 0.089606 -0.000000
v -0.865576 0.015656 -0.000000
v -0.443636 0.133576 -0.047968
v -0.749542 0.118836 -0.047968
v -0.826505 0.083828 -0.047968
v -0.852251 0.015656 -0.047968
v -0.453408 0.111591 -0.063957
v -0.799176 0.071118 -0.063957
v -0.822937 0.015656 -0.063957
v -0.463178 0.089606 -0.047968
v -0.771848 0.058408 -0.047968
v -0.793624 0.015656 -0.047968
v -0.781307 -0.047901 0.047968
v -0.769197 -0.042306 -0.000000
v -0.675390 -0.192752 0.047968
v -0.672371 -0.182212 -0.000000
v -0.576881 -0.253498 0.047968
v -0.581321 -0.240174 -0.000000
v -0.567109 -0.282812 0.063957
v -0.834589 -0.072520 0.047968
v -0.780577 -0.158353 0.047968
v -0.557337 -0.312126 0.047968
v -0.846700 -0.078115 -0.000000
v -0.789182 -0.166889 -0.000000
v -0.552896 -0.325450 -0.000000
v -0.834589 -0.072520 -0.047968
v -0.780577 -0.158353 -0.047968
v -0.557337 -0.312126 -0.047968
v -0.567109 -0.282812 -0.063957
v -0.781307 -0.047901 -0.047968
v -0.675390 -0.192752 -0.047968
v -0.576881 -0.253498 -0.047968
v 0.617182 -0.086797 0.095286
v 0.470420 -0.127583 0.105529
v 0.470420 -0.090940 -0.000000
v 0.606772 -0.059628 -0.000000
v 0.781322 0.186208 0.039973
v 0.754674 0.186208 -0.000000
v 0.640084 -0.146569 0.127048
v 0.470420 -0.208195 0.140706
v 0.750232 0.088606 0.066955
v 0.662985 -0.206342 0.095286
v 0.470420 -0.288808 0.105529
v 0.785957 0.076011 0.050216
v 0.673395 -0.233511 -0.000000
v 0.470420 -0.325450 -0.000000
v 0.802198 0.070285 -0.000000
v 0.662985 -0.206342 -0.095287
v 0.470420 -0.288808 -0.105530
v 0.785957 0.076011 -0.050217
v 0.640084 -0.146569 -0.127049
v 0.470420 -0.208195 -0.140706
v 0.750232 0.088606 -0.066955
v 0.617182 -0.086797 -0.095287
v 0.470420 -0.127583 -0.105530
v 0.781322 0.186208 -0.039973
v 0.803644 0.198785 0.037475
v 0.816993 0.203135 0.031978
v 0.790205 0.202197 -0.000000
v 0.817392 0.199019 0.026482
v 0.794646 0.198200 -0.000000
v 0.800864 0.186208 0.023984
v 0.783098 0.186208 -0.000000
v 0.866431 0.200073 0.049966
v 0.875925 0.205195 0.042638
v 0.867431 0.200823 0.035310
v 0.839949 0.186208 0.031978
v 0.929220 0.201363 0.037475
v 0.934859 0.207256 0.031978
v 0.917471 0.202626 0.026482
v 0.879034 0.186208 0.023984
v 0.957760 0.201947 -0.000000
v 0.961646 0.208193 -0.000000
v 0.896801 0.186208 -0.000000
v 0.929220 0.201363 -0.037475
v 0.934859 0.207256 -0.031979
v 0.917471 0.202626 -0.026482
v 0.879034 0.186208 -0.023984
v 0.866431 0.200073 -0.049967
v 0.875925 0.205195 -0.042638
v 0.867431 0.200823 -0.035310
v 0.839949 0.186208 -0.031979
v 0.803644 0.198785 -0.037475
v 0.816993 0.203135 -0.031979
v 0.817392 0.199019 -0.026482
v 0.800864 0.186208 -0.023984
v 0.076541 0.385408 0.038104
v 0.084011 0.385408 -0.000000
v 0.072440 0.351431 0.036350
v 0.079570 0.351431 -0.000000
v 0.038824 0.309459 0.021999
v 0.043149 0.309459 -0.000000
v 0.039632 0.271484 0.022314
v 0.044038 0.271484 -0.000000
v 0.056022 0.385408 0.068835
v 0.052858 0.351431 0.065671
v 0.026950 0.309459 0.039763
v 0.027551 0.271484 0.040364
v 0.025291 0.385408 0.089354
v 0.023537 0.351431 0.085253
v 0.009186 0.309459 0.051637
v 0.009501 0.271484 0.052445
v -0.012813 0.385408 0.096824
v -0.012813 0.351431 0.092382
v -0.012813 0.309459 0.055962
v -0.012813 0.271484 0.056851
v -0.050918 0.385408 0.089354
v -0.049163 0.351431 0.085253
v -0.034812 0.309459 0.051637
v -0.035127 0.271484 0.052445
v -0.081648 0.385408 0.068835
v -0.078485 0.351431 0.065671
v -0.052577 0.309459 0.039763
v -0.053177 0.271484 0.040364
v -0.102167 0.385408 0.038104
v -0.098066 0.351431 0.036350
v -0.064450 0.309459 0.021999
v -0.065258 0.271484 0.022314
v -0.109637 0.385408 -0.000000
v -0.105196 0.351431 -0.000000
v -0.068776 0.309459 -0.000000
v -0.069664 0.271484 -0.000000
v -0.102167 0.385408 -0.038105
v -0.098066 0.351431 -0.036350
v -0.064450 0.309459 -0.021999
v -0.065258 0.271484 -0.022314
v -0.081648 0.385408 -0.068835
v -0.078485 0.351431 -0.065672
v -0.052577 0.309459 -0.039764
v -0.053177 0.271484 -0.040364
v -0.050918 0.385408 -0.089354
v -0.049163 0.351431 -0.085253
v -0.034812 0.309459 -0.051637
v -0.035127 0.271484 -0.052445
v -0.012813 0.385408 -0.096824
v -0.012813 0.351431 -0.092383
v -0.012813 0.309459 -0.055963
v -0.012813 0.271484 -0.056851
v 0.025291 0.385408 -0.089354
v 0.023537 0.351431 -0.085253
v 0.009186 0.309459 -0.051637
v 0.009501 0.271484 -0.052445
v 0.056022 0.385408 -0.068835
v 0.052858 0.351431 -0.065672
v 0.026950 0.309459 -0.039764
v 0.027551 0.271484 -0.040364
v 0.076541 0.385408 -0.038105
v 0.072440 0.351431 -0.036350
v 0.038824 0.309459 -0.021999
v 0.039632 0.271484 -0.022314
v 0.290384 0.211524 0.129002
v 0.328079 0.186208 0.145040
v 0.116190 0.211524 0.303197
v 0.132228 0.186208 0.340892
v -0.141815 0.211524 0.303197
v -0.157853 0.186208 0.340892
v -0.316010 0.211524 0.129002
v -0.353705 0.186208 0.145040
v -0.316010 0.211524 -0.129003
v -0.353705 0.186208 -0.145041
v -0.141815 0.211524 -0.303197
v -0.157853 0.186208 -0.340892
v 0.116190 0.211524 -0.303197
v 0.132228 0.186208 -0.340892
v 0.290384 0.211524 -0.129003
v 0.328079 0.186208 -0.145041
s 1
f 20 21 25
f 84 83 94
f 225 228 224
f 122 101 99
f 18 24 22
f 160 164 161
f 133 132 106
f 219 224 223
f 51 55 52
f 66 36 32
f 195 196 171
f 166 163 165
f 260 200 259
f 59 6 7
f 91 77 76
f 201 203 209
f 40 42 47
f 8 12 9
f 271 274 273
f 244 247 243
f 56 54 47
f 235 240 239
f 81 66 65
f 184 188 187
f 97 89 88
f 88 73 72
f 162 163 160
f 208 211 207
f 247 252 251
f 31 33 34
f 202 261 204
f 85 70 69
f 26 35 33
f 71 88 72
f 76 61 60
f 70 50 46
f 39 43 42
f 59 57 73
f 84 69 68
f 93 81 80
f 40 45 41
f 73 53 72
f 77 62 61
f 94 83 82
f 54 3 55
f 241 244 240
f 119 116 120
f 32 36 35
f 100 104 98
f 45 47 48
f 276 273 274
f 10 14 13
f 2 8 9
f 273 246 242
f 61 10 60
f 212 215 211
f 67 84 68
f 58 10 6
f 182 181 177
f 63 25 21
f 80 65 64
f 224 227 223
f 101 98 99
f 62 21 17
f 56 1 54
f 13 17 20
f 199 208 207
f 190 193 189
f 251 256 255
f 13 11 1
f 71 53 50
f 96 87 86
f 256 259 255
f 157 161 158
f 128 125 126
f 7 6 5
f 178 183 182
f 217 216 213
f 3 1 2
f 14 62 17
f 200 201 199
f 257 260 256
f 42 40 33
f 248 245 249
f 132 114 110
f 108 107 104
f 193 192 189
f 42 46 49
f 123 119 120
f 180 159 156
f 155 157 158
f 116 111 112
f 108 111 107
f 106 109 105
f 176 156 153
f 120 124 123
f 117 121 120
f 135 139 138
f 27 30 31
f 19 22 23
f 159 160 157
f 194 197 193
f 177 180 176
f 114 138 118
f 103 100 101
f 172 179 178
f 113 118 117
f 152 154 155
f 133 135 132
f 92 79 78
f 191 196 195
f 123 103 101
f 127 131 102
f 126 102 103
f 170 176 169
f 159 154 156
f 110 113 109
f 147 145 146
f 141 121 139
f 145 153 151
f 66 29 65
f 189 188 185
f 22 28 26
f 130 127 128
f 187 192 191
f 171 169 149
f 166 147 167
f 124 126 103
f 141 143 124
f 128 142 143
f 134 136 133
f 156 151 153
f 231 247 200
f 136 140 139
f 148 149 145
f 102 105 100
f 197 171 196
f 109 112 108
f 93 91 97
f 198 173 197
f 185 184 180
f 180 181 185
f 191 162 187
f 173 174 172
f 143 130 128
f 214 265 218
f 168 148 166
f 75 89 97
f 185 181 182
f 112 117 116
f 16 18 19
f 23 26 27
f 233 238 237
f 253 258 257
f 237 242 241
f 226 229 225
f 70 87 71
f 242 245 241
f 264 265 263
f 204 205 203
f 266 267 265
f 262 204 261
f 59 74 58
f 246 249 245
f 203 210 209
f 230 233 229
f 159 187 162
f 217 222 221
f 221 226 225
f 258 261 257
f 63 80 64
f 214 217 213
f 275 278 277
f 210 213 209
f 249 254 253
f 228 231 227
f 49 53 56
f 215 220 219
f 62 79 63
f 20 18 11
f 278 263 277
f 240 243 239
f 67 39 36
f 267 270 269
f 66 83 67
f 269 272 271
f 37 41 38
f 171 172 170
f 231 236 235
f 69 39 68
f 233 232 229
f 34 37 38
f 65 25 64
f 89 59 73
f 58 76 60
f 48 51 52
f 11 16 12
f 43 70 46
f 25 29 24
f 29 28 24
f 24 20 25
f 94 95 84
f 95 85 84
f 224 220 225
f 220 221 225
f 225 229 228
f 122 123 101
f 18 20 24
f 160 163 164
f 110 106 132
f 106 131 133
f 131 134 133
f 219 220 224
f 51 54 55
f 66 67 36
f 150 168 171
f 168 195 171
f 195 168 191
f 168 166 165
f 166 167 163
f 167 164 163
f 165 191 168
f 260 202 200
f 59 58 6
f 74 90 76
f 90 91 76
f 209 213 212
f 212 208 209
f 208 201 209
f 47 44 40
f 42 49 47
f 8 11 12
f 271 272 274
f 244 248 247
f 54 51 47
f 49 56 47
f 235 236 240
f 81 82 66
f 184 185 188
f 87 96 88
f 96 97 88
f 88 89 73
f 162 165 163
f 208 212 211
f 247 248 252
f 31 30 33
f 202 260 261
f 204 203 202
f 203 201 202
f 85 86 70
f 26 28 35
f 33 30 26
f 71 87 88
f 76 77 61
f 70 71 50
f 42 35 39
f 35 36 39
f 59 7 57
f 84 85 69
f 79 92 80
f 92 93 80
f 40 44 45
f 73 57 53
f 77 78 62
f 81 93 82
f 93 94 82
f 54 4 3
f 240 236 241
f 236 237 241
f 241 245 244
f 115 116 119
f 116 117 120
f 35 28 32
f 28 29 32
f 100 105 104
f 45 44 47
f 276 275 273
f 13 5 10
f 5 6 10
f 2 1 8
f 273 275 250
f 275 277 258
f 254 275 258
f 277 262 258
f 271 273 242
f 275 254 250
f 230 269 234
f 269 271 234
f 273 250 246
f 238 234 271
f 242 238 271
f 61 14 10
f 212 216 215
f 67 83 84
f 58 60 10
f 177 170 178
f 170 172 178
f 178 182 177
f 63 64 25
f 80 81 65
f 224 228 227
f 101 100 98
f 62 63 21
f 1 4 54
f 56 5 1
f 14 17 13
f 17 21 20
f 199 201 208
f 190 194 193
f 251 252 256
f 11 8 1
f 5 13 1
f 71 72 53
f 85 95 86
f 95 96 86
f 256 260 259
f 157 160 161
f 128 127 125
f 5 56 7
f 56 57 7
f 178 179 183
f 217 221 216
f 221 220 216
f 216 212 213
f 3 4 1
f 14 61 62
f 200 202 201
f 256 252 257
f 252 253 257
f 257 261 260
f 40 37 33
f 35 42 33
f 248 244 245
f 249 253 248
f 253 252 248
f 132 135 114
f 104 105 108
f 105 109 108
f 193 197 196
f 192 188 189
f 193 196 192
f 43 46 42
f 46 50 49
f 123 122 119
f 180 184 159
f 155 154 157
f 116 115 111
f 108 112 111
f 106 110 109
f 176 180 156
f 120 121 124
f 117 118 121
f 135 136 139
f 27 26 30
f 19 18 22
f 159 162 160
f 194 198 197
f 177 181 180
f 114 135 138
f 103 102 100
f 172 174 179
f 113 114 118
f 152 151 154
f 133 136 135
f 77 91 78
f 91 92 78
f 191 192 196
f 123 124 103
f 102 125 127
f 127 129 131
f 131 106 102
f 126 125 102
f 170 177 176
f 159 157 154
f 110 114 113
f 147 148 145
f 118 138 121
f 138 139 121
f 139 140 141
f 145 149 153
f 149 169 176
f 153 149 176
f 151 152 146
f 151 146 145
f 66 32 29
f 185 186 189
f 186 190 189
f 22 24 28
f 130 129 127
f 187 188 192
f 149 150 171
f 171 170 169
f 166 148 147
f 124 142 126
f 124 121 141
f 141 144 143
f 143 142 124
f 128 126 142
f 134 137 136
f 156 154 151
f 251 255 259
f 259 200 251
f 200 199 215
f 251 200 247
f 199 207 211
f 211 215 199
f 215 219 231
f 219 223 227
f 227 231 219
f 231 235 247
f 235 239 243
f 243 247 235
f 200 215 231
f 136 137 140
f 148 150 149
f 102 106 105
f 197 173 171
f 109 113 112
f 93 92 91
f 91 90 97
f 97 96 95
f 95 94 97
f 94 93 97
f 198 175 173
f 191 165 162
f 173 175 174
f 143 144 130
f 262 277 206
f 277 263 206
f 263 265 210
f 265 267 218
f 263 210 205
f 267 269 226
f 269 230 226
f 205 206 263
f 267 226 222
f 267 222 218
f 210 265 214
f 168 150 148
f 97 90 75
f 90 74 75
f 182 183 186
f 186 185 182
f 112 113 117
f 16 15 18
f 23 22 26
f 233 234 238
f 253 254 258
f 237 238 242
f 226 230 229
f 70 86 87
f 242 246 245
f 264 266 265
f 204 206 205
f 266 268 267
f 262 206 204
f 59 75 74
f 246 250 249
f 203 205 210
f 230 234 233
f 159 184 187
f 217 218 222
f 221 222 226
f 258 262 261
f 63 79 80
f 214 218 217
f 275 276 278
f 210 214 213
f 249 250 254
f 228 232 231
f 50 53 49
f 53 57 56
f 215 216 220
f 62 78 79
f 18 15 11
f 13 20 11
f 278 264 263
f 240 244 243
f 67 68 39
f 267 268 270
f 66 82 83
f 269 270 272
f 37 40 41
f 171 173 172
f 231 232 236
f 69 43 39
f 233 237 232
f 237 236 232
f 232 228 229
f 34 33 37
f 65 29 25
f 89 75 59
f 58 74 76
f 48 47 51
f 11 15 16
f 43 69 70
