# Blender v2.79 (sub 0) OBJ File: ''
# www.blender.org
v -0.597280 0.576714 0.602806
v -0.597280 0.576714 -0.598970
v 0.604496 0.576714 0.602806
v 0.105675 2.946726 0.111482
v 0.604496 0.576714 -0.598970
v -0.693730 0.761123 0.704185
v -0.289221 2.813173 0.349256
v -0.273948 2.777403 -0.267783
v -0.768898 0.739298 -0.788966
v 0.269377 2.758220 -0.315811
v 0.651183 0.820452 -0.677508
v 0.276343 2.730456 0.297109
v 0.705815 0.751192 0.706131
v -0.623477 1.923102 0.719697
v -0.612568 1.889309 -0.619954
v 0.587939 1.889613 -0.679049
v 0.610560 1.853002 0.631907
v -1.126691 0.909676 -1.051522
v 0.901462 1.184876 -1.074326
v 1.087922 1.107564 0.976831
v -0.940022 0.960543 1.126661
v -0.767669 1.484640 0.905076
v -0.904772 1.636854 1.056918
v -0.943952 1.587639 -0.937932
v -0.846760 1.443069 -0.816541
v 0.864366 1.662578 -1.006059
v 0.730755 1.568592 -0.859105
v 0.938635 1.603239 0.924269
v 0.828007 1.513442 0.789026
v -0.700173 2.217520 0.811434
v -0.465825 2.345899 0.544979
v -0.452858 2.308479 -0.453853
v -0.684987 2.170353 -0.696718
v 0.437689 2.298902 -0.507728
v 0.663791 2.164820 -0.769143
v 0.452927 2.263946 0.474000
v 0.688278 2.117076 0.709282
v 0.005762 0.385369 -0.694783
v 0.000120 3.130710 -0.119568
v 0.005762 0.385369 0.697312
v 0.000120 3.130710 0.128179
v 0.008583 0.593230 0.815873
v -0.005876 2.928099 0.373406
v -0.066596 0.620704 -0.850314
v -0.001065 2.923462 -0.338965
v 0.087244 0.915136 1.217349
v -0.128866 0.930452 -1.232212
v 0.021196 1.593930 1.146512
v -0.044512 1.599794 -1.126884
v -0.010694 2.228182 -0.849959
v -0.007202 2.385839 -0.557889
v -0.005307 2.227847 0.879815
v -0.005888 2.387267 0.589217
s off
f 49 26 27
f 45 39 10
f 16 26 49
f 43 41 7
f 5 40 38
f 42 1 40
f 51 10 34
f 11 3 5
f 31 8 32
f 44 5 38
f 8 51 32
f 6 2 1
f 53 7 31
f 14 24 23
f 9 47 44
f 16 28 26
f 47 18 25
f 46 6 42
f 11 20 13
f 47 11 44
f 6 18 9
f 22 21 46
f 10 12 34
f 21 25 18
f 26 29 27
f 39 8 41
f 22 24 25
f 14 33 15
f 31 33 30
f 46 42 13
f 50 34 35
f 16 37 17
f 34 37 35
f 50 35 16
f 52 31 30
f 36 52 37
f 12 53 36
f 32 50 33
f 19 29 20
f 52 30 14
f 14 23 48
f 2 40 1
f 4 43 12
f 48 23 22
f 27 25 49
f 25 24 49
f 49 24 15
f 15 16 49
f 5 3 40
f 42 6 1
f 51 45 10
f 11 13 3
f 31 7 8
f 44 11 5
f 8 45 51
f 6 9 2
f 53 43 7
f 14 15 24
f 38 2 44
f 2 9 44
f 9 18 47
f 16 17 28
f 25 27 47
f 27 19 47
f 46 21 6
f 11 19 20
f 47 19 11
f 6 21 18
f 46 20 29
f 29 22 46
f 10 39 4
f 39 41 4
f 4 12 10
f 12 36 34
f 21 22 25
f 26 28 29
f 45 8 39
f 8 7 41
f 22 23 24
f 14 30 33
f 31 32 33
f 40 3 42
f 3 13 42
f 13 20 46
f 50 51 34
f 16 35 37
f 34 36 37
f 16 15 50
f 15 33 50
f 52 53 31
f 36 53 52
f 12 43 53
f 32 51 50
f 19 27 29
f 14 17 52
f 17 37 52
f 48 28 17
f 17 14 48
f 2 38 40
f 4 41 43
f 22 29 48
f 29 28 48
v 0.232671 0.801303 -0.099414
v 0.232671 0.801303 0.099414
v 0.099414 0.801303 0.232671
v -0.099414 0.801303 0.232671
v -0.232671 0.801303 0.099414
v -0.232671 0.801303 -0.099414
v 0.150641 -0.800957 -0.352564
v -0.150641 -0.800957 -0.352564
v 0.099414 0.801303 -0.232671
v -0.099414 0.801303 -0.232671
v -0.352564 -0.800957 0.150641
v -0.352564 -0.800957 -0.150641
v 0.150641 -0.800957 0.352564
v -0.150641 -0.800957 0.352564
v 0.352564 -0.800957 -0.150641
v 0.352564 -0.800957 0.150641
v 0.258053 0.771225 -0.110519
v 0.258053 0.771225 0.110519
v 0.110519 0.771225 0.258053
v -0.110519 0.771225 0.258053
v -0.258053 0.771225 0.110519
v -0.258053 0.771225 -0.110519
v 0.159502 -0.770801 -0.381048
v -0.161674 -0.768544 -0.379005
v 0.110519 0.771225 -0.258053
v -0.110519 0.771225 -0.258053
v -0.379219 -0.772028 0.166468
v -0.377375 -0.768236 -0.157099
v 0.161713 -0.766925 0.382628
v -0.161347 -0.774005 0.380341
v 0.372073 -0.771837 -0.168062
v 0.372114 -0.766292 0.159835
v 0.272965 -0.556521 -0.169283
v 0.273208 -0.523246 0.119921
v 0.276561 0.771328 0.000000
v -0.000000 0.771328 0.276561
v 0.003023 -0.771094 0.409854
v 0.202662 0.771122 -0.202662
v 0.202662 0.771122 0.202662
v -0.202662 0.771122 0.202662
v -0.202662 0.771122 -0.202662
v 0.291635 -0.772269 -0.301658
v 0.292239 -0.764367 0.299131
v -0.299419 -0.774652 0.297931
v -0.297196 -0.768546 -0.296365
v 0.296148 -0.543123 -0.034425
f 82 89 90
f 66 64 61
f 89 72 56
f 60 76 95
f 94 75 59
f 68 85 69
f 87 71 92
f 62 79 63
f 92 71 55
f 93 73 57
f 66 82 90
f 54 70 91
f 88 70 54
f 98 77 61
f 70 99 86
f 59 74 58
f 99 87 85
f 94 77 98
f 76 91 95
f 93 80 97
f 61 76 60
f 81 74 75
f 56 54 63
f 96 82 66
f 97 80 64
f 96 72 82
f 77 78 76
f 73 93 83
f 64 81 65
f 82 72 89
f 68 69 66
f 66 67 64
f 64 65 61
f 61 60 68
f 68 66 61
f 56 57 89
f 57 73 89
f 84 68 95
f 68 60 95
f 59 63 94
f 63 79 94
f 68 84 85
f 92 96 87
f 96 85 87
f 87 99 88
f 87 88 71
f 62 78 79
f 55 56 92
f 56 72 92
f 57 58 93
f 58 74 93
f 83 67 90
f 67 66 90
f 78 62 91
f 62 54 91
f 54 55 88
f 55 71 88
f 61 65 98
f 65 81 98
f 95 91 86
f 91 70 86
f 70 88 99
f 86 84 95
f 59 75 74
f 85 84 99
f 84 86 99
f 94 79 77
f 76 78 91
f 93 74 80
f 61 77 76
f 81 80 74
f 75 94 81
f 94 98 81
f 63 59 58
f 58 57 56
f 56 55 54
f 54 62 63
f 63 58 56
f 66 69 96
f 69 85 96
f 64 67 97
f 67 83 97
f 96 92 72
f 77 79 78
f 93 97 83
f 83 90 73
f 90 89 73
f 64 80 81
